{
	"info": {
		"_postman_id": "5a0b9f91-8f79-4a0a-9dea-ccd25132c353",
		"name": "APIs-Books",
		"schema": "https://schema.getpostman.com/json/collection/v2.1.0/collection.json"
	},
	"item": [
		{
			"name": "Authentication",
			"request": {
				"method": "POST",
				"header": [],
				"url": {
					"raw": "localhost:8080/login",
					"host": [
						"localhost"
					],
					"port": "8080",
					"path": [
						"login"
					]
				}
			},
			"response": []
		},
		{
			"name": "getStatus",
			"event": [
				{
					"listen": "test",
					"script": {
						"exec": [
							"pm.test(\"Status code is 200\", function () {\r",
							"    pm.response.to.have.status(200);\r",
							"});\r",
							"pm.sendRequest(\"https://postman-echo.com/get\", function (err, response) {\r",
							"    console.log(response.json());\r",
							"});"
						],
						"type": "text/javascript"
					}
				}
			],
			"request": {
				"method": "GET",
				"header": [],
				"url": {
					"raw": "localhost:8080/",
					"host": [
						"localhost"
					],
					"port": "8080",
					"path": [
						""
					]
				}
			},
			"response": []
		},
		{
			"name": "getAllBooks",
			"request": {
				"method": "GET",
				"header": [],
				"url": {
					"raw": "localhost:8080/books",
					"host": [
						"localhost"
					],
					"port": "8080",
					"path": [
						"books"
					]
				}
			},
			"response": []
		},
		{
			"name": "getBook",
			"request": {
				"method": "GET",
				"header": [],
				"url": {
					"raw": "localhost:8080/book/2",
					"host": [
						"localhost"
					],
					"port": "8080",
					"path": [
						"book",
						"2"
					]
				}
			},
			"response": []
		},
		{
			"name": "addBook",
			"request": {
				"method": "POST",
				"header": [],
				"url": {
					"raw": "localhost:8080/book",
					"host": [
						"localhost"
					],
					"port": "8080",
					"path": [
						"book"
					]
				}
			},
			"response": []
		},
		{
			"name": "updateBook",
			"request": {
				"method": "PUT",
				"header": [],
				"url": {
					"raw": "localhost:8080/book/1",
					"host": [
						"localhost"
					],
					"port": "8080",
					"path": [
						"book",
						"1"
					]
				}
			},
			"response": []
		},
		{
			"name": "deleteBook",
			"request": {
				"method": "DELETE",
				"header": [],
				"url": {
					"raw": "localhost:8080/book/6",
					"host": [
						"localhost"
					],
					"port": "8080",
					"path": [
						"book",
						"6"
					]
				}
			},
			"response": []
		}
	]
}